%YAML 1.1
%TAG !u! tag:unity3d.com,2011:
--- !u!114 &11400000
MonoBehaviour:
  m_ObjectHideFlags: 0
  m_CorrespondingSourceObject: {fileID: 0}
  m_PrefabInstance: {fileID: 0}
  m_PrefabAsset: {fileID: 0}
  m_GameObject: {fileID: 0}
  m_Enabled: 1
  m_EditorHideFlags: 0
  m_Script: {fileID: 11500000, guid: 1233b2e5441ce4c9ba32136d34cf0d1f, type: 3}
  m_Name: ItemDatabase
  m_EditorClassIdentifier: 
  Data:
  - {fileID: 11400000, guid: ce5830d227ae1a246bac24076ee6a5c7, type: 2}
  - {fileID: 11400000, guid: a02cbbc6aaf1c204dac88e9bea471134, type: 2}
  - {fileID: 11400000, guid: 8d21a42c35c549047b1c34fd97afdc0e, type: 2}
  MaxDamageType: 3
