%YAML 1.1
%TAG !u! tag:unity3d.com,2011:
--- !u!114 &11400000
MonoBehaviour:
  m_ObjectHideFlags: 0
  m_CorrespondingSourceObject: {fileID: 0}
  m_PrefabInstance: {fileID: 0}
  m_PrefabAsset: {fileID: 0}
  m_GameObject: {fileID: 0}
  m_Enabled: 1
  m_EditorHideFlags: 0
  m_Script: {fileID: 11500000, guid: b8541376b0329c94c811b8d3b46e0d25, type: 3}
  m_Name: Sword
  m_EditorClassIdentifier: 
  itemName: Sword
  spriteStates:
    fixedState: {fileID: 21300000, guid: f4efff6f9a33ef94b998f850d2428f33, type: 3}
    splitState: {fileID: 21300000, guid: 628ec1e6eb295ed44ac9af211713d0db, type: 3}
    shatteredState: {fileID: 21300000, guid: 929603b22f9e7ac458005e0f77ea0b4a, type: 3}
    cursedState: {fileID: 21300000, guid: 865b07137862df643b45dd4c4f85a323, type: 3}
