%YAML 1.1
%TAG !u! tag:unity3d.com,2011:
--- !u!114 &11400000
MonoBehaviour:
  m_ObjectHideFlags: 0
  m_CorrespondingSourceObject: {fileID: 0}
  m_PrefabInstance: {fileID: 0}
  m_PrefabAsset: {fileID: 0}
  m_GameObject: {fileID: 0}
  m_Enabled: 1
  m_EditorHideFlags: 0
  m_Script: {fileID: 11500000, guid: 5d141ccdc92209b49b87088cf00bec0c, type: 3}
  m_Name: Magic Mirror
  m_EditorClassIdentifier: 
  toolName: Magic Mirror
  type: {fileID: 11400000, guid: f2b73c41417ddd24390678c2ab806e72, type: 2}
  toolSprite: {fileID: 21300000, guid: 83cd1e5ecd9714b5b95ca37fcd6269cc, type: 3}
